﻿[
	{
		"_id": "co-05",
		"_parentId": "course",
		"_type": "page",
		"_classes": "",
		"title": "Instagram للأعمال",
		"displayTitle": "Instagram للأعمال",
		"pageBody": "&#160;",
		"body": "على Instagram، تصل رسالتك إلى المستهلكين في المكان الذي يلجئون إليه لمتابعة شغفهم واستكشاف العالم من خلال الصور ومقاطع الفيديو. ولهذه الأسباب، يمثل Instagram بيئة ملائمة للغاية لمشاركة قصص الأنشطة التجارية أو المنتجات أو التطبيقات أو الخدمات.",
		"_graphic": {
			"src": "course/en/images/contentObjects/instagram_for_business.png",
			"alt": "عنصر نائب لصورة."
		},
		"linkText": "عرض",
		"durationLabel": "المدة:",
		"duration": "دقيقتان",
		"_pageLevelProgress": {
			"_isEnabled": true
		}
	},
	{
		"_id": "co-10",
		"_parentId": "course",
		"_type": "page",
		"_classes": "",
		"title": "أفضل ممارسات تصميمات الإعلانات",
		"displayTitle": "أفضل ممارسات تصميمات الإعلانات",
		"pageBody": "&#160;",
		"body": "سنلقي نظرة على مجموعة من أفضل الممارسات التي تفيدك أثناء بدء استخدام Instagram.",
		"_graphic": {
			"src": "course/en/images/contentObjects/best_practices.png",
			"alt": "عنصر نائب لصورة."
		},
		"linkText": "عرض",
		"durationLabel": "المدة:",
		"duration": "دقيقتان",
		"_pageLevelProgress": {
			"_isEnabled": true
		}
	},
	{
		"_id": "co-15",
		"_parentId": "course",
		"_type": "page",
		"_classes": "",
		"title": "نصائح للمعلنين",
		"displayTitle": "نصائح للمعلنين",
		"pageBody": "&#160;",
		"body": "فيما يلي بعض الأسئلة وأفضل الممارسات التي يجب وضعها في الاعتبار عند بدء استخدام Instagram.",
		"_graphic": {
			"src": "course/en/images/contentObjects/tips_for_advertisers.png",
			"alt": "عنصر نائب لصورة."
		},
		"linkText": "عرض",
		"durationLabel": "المدة:",
		"duration": "دقيقتان",
		"_pageLevelProgress": {
			"_isEnabled": true
		}
	},
	{
		"_id": "co-20",
		"_parentId": "course",
		"_type": "page",
		"_classes": "",
		"title": "اختبار مستوى المعرفة",
		"displayTitle": "اختبار مستوى المعرفة",
		"pageBody": "&#160;",
		"body": "دعونا نقوم باختبار سريع لمستوى المعرفة.",
		"_graphic": {
			"src": "course/en/images/contentObjects/instagram_community.png",
			"alt": "عنصر نائب لصورة."
		},
		"linkText": "عرض",
		"durationLabel": "المدة:",
		"duration": "دقيقتان",
		"_pageLevelProgress": {
			"_isEnabled": true
		}
	}
]
